TP de Biométrie Semestre 3 - 3 Visualiser des données avec ggplot2
…
les nuages de points

les graphiques en lignes

les histogrammes

les diagrammes bâtons

3.2.5 Votre premier graphique

Reprenons maintenant le jeu de données penguins :

penguins

# A tibble: 344 × 8
   species island    bill_length_mm bill_depth_mm flipper_…¹ body_…² sex    year
   <fct>   <fct>              <dbl>         <dbl>      <int>   <int> <fct> <int>
 1 Adelie  Torgersen           39.1          18.7        181    3750 male   2007
 2 Adelie  Torgersen           39.5          17.4        186    3800 fema…  2007
 3 Adelie  Torgersen           40.3          18          195    3250 fema…  2007
 4 Adelie  Torgersen           NA            NA           NA      NA <NA>   2007
 5 Adelie  Torgersen           36.7          19.3        193    3450 fema…  2007
 6 Adelie  Torgersen           39.3          20.6        190    3650 male   2007
 7 Adelie  Torgersen           38.9          17.8        181    3625 fema…  2007
 8 Adelie  Torgersen           39.2          19.6        195    4675 male   2007
 9 Adelie  Torgersen           34.1          18.1        193    3475 <NA>   2007
10 Adelie  Torgersen           42            20.2        190    4250 <NA>   2007
# … with 334 more rows, and abbreviated variable names ¹​flipper_length_mm,
#   ²​body_mass_g
…
L’argument se = FALSE de la fonction geom_smooth() permet de ne pas afficher l’intervalle d’incertitude de la régression linéaire. Ici, j’ai associé la couleur de remplissage des points et la couleur des droites de régression aux espèces (donc à l’intérieur de aes(), soit dans ggplot() soit dans geom_smooth()), et j’ai fixé pour tous les points, le choix du type de symbole (shape = 21, voir Figure 3.4), la couleur de contour (color = "black") et la transparence alpha = 0.6.

Là encore, il ne s’agit plus strictement d’un graphique représentant les relations entre 2 variables numériques, mais bien entre 3 variables : deux variables numériques (body_mass_g et flipper_length_mm) et une variable catégorielle ou facteur (species). Il est finalement très simple d’ajouter d’autres variables sur un graphique bivarié tel qu’un nuage de points.

3.6.2 Les graphiques en lignes

Les graphiques en lignes, ou “linegraphs” sont généralement utilisés lorsque l’axe des x porte une information temporelle, et l’axe des y une autre variable numérique. Le temps est une variable naturellement ordonnée : les jours, semaines, mois, années, se suivent naturellement. Les graphiques en lignes devraient être évités lorsqu’il n’y a pas une organisation séquentielle évidente de la variable portée par l’axe des x. Ainsi, lorsque l’une des 2 variables dont on dispose est une variable numérique temporelle (des dates, des heures, etc.), on la place sur l’axe des x et la seconde variable, dont on étudiera les fluctuations au cours du temps, sur l’axe des y. On peut alors relier les valeurs grâce à l’objet géométrique geom_line() afin de créer une série temporelle. Pour illustrer cela, examinons un autre jeu de données qui contient une variable temporelle :

economics

# A tibble: 574 × 6
   date         pce    pop psavert uempmed unemploy
   <date>     <dbl>  <dbl>   <dbl>   <dbl>    <dbl>
 1 1967-07-01  507. 198712    12.6     4.5     2944
 2 1967-08-01  510. 198911    12.6     4.7     2945
 3 1967-09-01  516. 199113    11.9     4.6     2958
 4 1967-10-01  512. 199311    12.9     4.9     3143
 5 1967-11-01  517. 199498    12.8     4.7     3066
 6 1967-12-01  525. 199657    11.8     4.8     3018
 7 1968-01-01  531. 199808    11.7     5.1     2878
 8 1968-02-01  534. 199920    12.3     4.5     3001
 9 1968-03-01  544. 200056    11.7     4.1     2877
10 1968-04-01  544  200208    12.3     4.6     2709
# … with 564 more rows
…
