TP de Biométrie Semestre 3 - 4 Manipuler des tableaux avec dplyr
…
%in% : permet de tester si l’élément de gauche est contenu dans la série d’éléments fournie à droite. Par exemple 2 %in% 1:5 renvoie TRUE, mais 2 %in% 5:10 renvoie FALSE.

| : opérateur logique OU. Permet de tester qu’une condition OU une autre est remplie.

& : opérateur logique ET. Permet de tester qu’une condition ET une autre sont remplies.

Voyons comment utiliser ces opérateurs avec la fonction filter().

Dans le tableau flights, tous les vols prévus ont-ils effectivement décollé ? Une bonne façon de le savoir est de regarder si, pour la variable dep_time (heure de décollage), des données manquantes sont présentes :

flights %>% 
  filter(is.na(dep_time))

# A tibble: 8,255 × 19
    year month   day dep_time sched_de…¹ dep_d…² arr_t…³ sched…⁴ arr_d…⁵ carrier
   <int> <int> <int>    <int>      <int>   <dbl>   <int>   <int>   <dbl> <chr>  
 1  2013     1     1       NA       1630      NA      NA    1815      NA EV     
 2  2013     1     1       NA       1935      NA      NA    2240      NA AA     
 3  2013     1     1       NA       1500      NA      NA    1825      NA AA     
 4  2013     1     1       NA        600      NA      NA     901      NA B6     
 5  2013     1     2       NA       1540      NA      NA    1747      NA EV     
 6  2013     1     2       NA       1620      NA      NA    1746      NA EV     
 7  2013     1     2       NA       1355      NA      NA    1459      NA EV     
 8  2013     1     2       NA       1420      NA      NA    1644      NA EV     
 9  2013     1     2       NA       1321      NA      NA    1536      NA EV     
10  2013     1     2       NA       1545      NA      NA    1910      NA AA     
# … with 8,245 more rows, 9 more variables: flight <int>, tailnum <chr>,
#   origin <chr>, dest <chr>, air_time <dbl>, distance <dbl>, hour <dbl>,
#   minute <dbl>, time_hour <dttm>, and abbreviated variable names
#   ¹​sched_dep_time, ²​dep_delay, ³​arr_time, ⁴​sched_arr_time, ⁵​arr_delay

Seules les lignes contenant NA dans la colonne dep_time sont retenues. Il y a donc 8255 vols qui n’ont finalement pas décollé.

Dans le même ordre d’idée, y a t-il des vols qui ont décollé mais qui ne sont pas arrivés à destination ? Là encore, une façon d’obtenir cette information est de sélectionner les vols qui ont décollé (donc pour lesquels l’heure de décollage n’est pas manquante), mais pour lesquels l’heure d’atterrissage est manquante :

flights %>% 
  filter(!is.na(dep_time),
         is.na(arr_time))

# A tibble: 458 × 19
    year month   day dep_time sched_de…¹ dep_d…² arr_t…³ sched…⁴ arr_d…⁵ carrier
   <int> <int> <int>    <int>      <int>   <dbl>   <int>   <int>   <dbl> <chr>  
 1  2013     1     1     2016       1930      46      NA    2220      NA EV     
 2  2013     1     2     2041       2045      -4      NA    2359      NA B6     
 3  2013     1     2     2145       2129      16      NA      33      NA UA     
 4  2013     1     9      615        615       0      NA     855      NA 9E     
 5  2013     1     9     2042       2040       2      NA    2357      NA B6     
 6  2013     1    11     1344       1350      -6      NA    1518      NA EV     
 7  2013     1    13     1907       1634     153      NA    1837      NA EV     
 8  2013     1    13     2239       2159      40      NA      30      NA EV     
 9  2013     1    16      837        840      -3      NA    1030      NA MQ     
10  2013     1    25     1452       1500      -8      NA    1619      NA US     
# … with 448 more rows, 9 more variables: flight <int>, tailnum <chr>,
#   origin <chr>, dest <chr>, air_time <dbl>, distance <dbl>, hour <dbl>,
#   minute <dbl>, time_hour <dttm>, and abbreviated variable names
#   ¹​sched_dep_time, ²​dep_delay, ³​arr_time, ⁴​sched_arr_time, ⁵​arr_delay

Notez l’utilisation du ! pour la première condition. Nous récupérons ici les lignes pour lesquelles dep_time n’est pas NA et pour lesquelles arr_time est NA. Seules les lignes qui respectent cette double condition sont retenues. Cette syntaxe est équivalente à :

flights %>% 
  filter(!is.na(dep_time) & is.na(arr_time))

# A tibble: 458 × 19
    year month   day dep_time sched_de…¹ dep_d…² arr_t…³ sched…⁴ arr_d…⁵ carrier
   <int> <int> <int>    <int>      <int>   <dbl>   <int>   <int>   <dbl> <chr>  
 1  2013     1     1     2016       1930      46      NA    2220      NA EV     
 2  2013     1     2     2041       2045      -4      NA    2359      NA B6     
 3  2013     1     2     2145       2129      16      NA      33      NA UA     
 4  2013     1     9      615        615       0      NA     855      NA 9E     
 5  2013     1     9     2042       2040       2      NA    2357      NA B6     
 6  2013     1    11     1344       1350      -6      NA    1518      NA EV     
 7  2013     1    13     1907       1634     153      NA    1837      NA EV     
 8  2013     1    13     2239       2159      40      NA      30      NA EV     
 9  2013     1    16      837        840      -3      NA    1030      NA MQ     
10  2013     1    25     1452       1500      -8      NA    1619      NA US     
# … with 448 more rows, 9 more variables: flight <int>, tailnum <chr>,
#   origin <chr>, dest <chr>, air_time <dbl>, distance <dbl>, hour <dbl>,
#   minute <dbl>, time_hour <dttm>, and abbreviated variable names
#   ¹​sched_dep_time, ²​dep_delay, ³​arr_time, ⁴​sched_arr_time, ⁵​arr_delay

Dans la fonction filter(), séparer plusieurs conditions par des virgules signifie que seules les lignes qui remplissent toutes les conditions seront retenues. C’est donc l’équivalent du ET logique.

Il y a donc 458 vols qui ne sont pas arrivés à destination (soit moins de 0,2% des vols au départ de New York en 2013). Selon vous, quelles raisons peuvent expliquer qu’un vol qui a décollé n’ait pas d’heure d’atterrissage ?

Enfin, pour illustrer l’utilisation de | (le OU logique) et de %in%, imaginons que nous souhaitions extraire les informations des vols ayant quitté l’aéroport JFK à destination d’Atlanta, Géorgie (ATL) et de Seatle, Washington (SEA), aux mois d’octobre, novembre et décembre :

atl_sea_fall <- flights %>% 
  filter(origin == "JFK", 
         dest == "ATL" | dest == "SEA", 
         month >= 10)
atl_sea_fall

# A tibble: 962 × 19
    year month   day dep_time sched_de…¹ dep_d…² arr_t…³ sched…⁴ arr_d…⁵ carrier
   <int> <int> <int>    <int>      <int>   <dbl>   <int>   <int>   <dbl> <chr>  
 1  2013    10     1      638        640      -2     839     905     -26 DL     
 2  2013    10     1      729        735      -6    1049    1040       9 DL     
 3  2013    10     1      824        830      -6    1030    1059     -29 DL     
 4  2013    10     1      853        900      -7    1217    1157      20 B6     
 5  2013    10     1     1328       1330      -2    1543    1553     -10 DL     
 6  2013    10     1     1459       1500      -1    1817    1829     -12 DL     
 7  2013    10     1     1544       1545      -1    1815    1819      -4 DL     
 8  2013    10     1     1754       1800      -6    2102    2103      -1 B6     
 9  2013    10     1     1825       1830      -5    2159    2150       9 DL     
10  2013    10     1     1841       1840       1    2058    2116     -18 DL     
# … with 952 more rows, 9 more variables: flight <int>, tailnum <chr>,
#   origin <chr>, dest <chr>, air_time <dbl>, distance <dbl>, hour <dbl>,
#   minute <dbl>, time_hour <dttm>, and abbreviated variable names
#   ¹​sched_dep_time, ²​dep_delay, ³​arr_time, ⁴​sched_arr_time, ⁵​arr_delay

Examinez ce tableau avec View() pour vérifier que la variable dest contient bien uniquement les codes ATL et SEA correspondant aux 2 aéroports qui nous intéressent. Nous avons extrait ici les vols à destination d’Atlanta et Seatle, pourtant, il nous a fallu utiliser le OU logique. Car chaque vol n’a qu’une unique destination, or nous souhaitons récupérer toutes les lignes pour lesquelles la destination est soit ATL, soit SEA (l’une ou l’autre).

Une autre solution pour obtenir le même tableau est de remplacer l’expression contenant | par une expression contenant %in% :

atl_sea_fall2 <- flights %>% 
  filter(origin == "JFK", 
         dest %in% c("ATL", "SEA"), 
         month >= 10)
atl_sea_fall2

# A tibble: 962 × 19
    year month   day dep_time sched_de…¹ dep_d…² arr_t…³ sched…⁴ arr_d…⁵ carrier
   <int> <int> <int>    <int>      <int>   <dbl>   <int>   <int>   <dbl> <chr>  
 1  2013    10     1      638        640      -2     839     905     -26 DL     
 2  2013    10     1      729        735      -6    1049    1040       9 DL     
 3  2013    10     1      824        830      -6    1030    1059     -29 DL     
 4  2013    10     1      853        900      -7    1217    1157      20 B6     
 5  2013    10     1     1328       1330      -2    1543    1553     -10 DL     
 6  2013    10     1     1459       1500      -1    1817    1829     -12 DL     
 7  2013    10     1     1544       1545      -1    1815    1819      -4 DL     
 8  2013    10     1     1754       1800      -6    2102    2103      -1 B6     
 9  2013    10     1     1825       1830      -5    2159    2150       9 DL     
10  2013    10     1     1841       1840       1    2058    2116     -18 DL     
# … with 952 more rows, 9 more variables: flight <int>, tailnum <chr>,
#   origin <chr>, dest <chr>, air_time <dbl>, distance <dbl>, hour <dbl>,
#   minute <dbl>, time_hour <dttm>, and abbreviated variable names
#   ¹​sched_dep_time, ²​dep_delay, ³​arr_time, ⁴​sched_arr_time, ⁵​arr_delay
…
Jusqu’ici, nous avons groupé les données de température par mois. Il est tout à fait possible de grouper les données par plus d’une variable, par exemple, par mois et par aéroport d’origine :

monthly_orig_temp <- weather %>% 
  group_by(origin, month) %>% 
  summarise(moyenne = mean(temp, na.rm = TRUE),
            ecart_type = sd(temp, na.rm = TRUE),
            nb_obs = n(),
            erreur_std = ecart_type / sqrt(nb_obs))

`summarise()` has grouped output by 'origin'. You can override using the
`.groups` argument.

monthly_orig_temp

# A tibble: 36 × 6
# Groups:   origin [3]
   origin month moyenne ecart_type nb_obs erreur_std
   <chr>  <int>   <dbl>      <dbl>  <int>      <dbl>
 1 EWR        1    35.6      10.8     742      0.396
 2 EWR        2    34.3       7.28    669      0.282
 3 EWR        3    40.1       6.72    743      0.247
 4 EWR        4    53.0       9.60    720      0.358
 5 EWR        5    63.3      10.6     744      0.389
 6 EWR        6    73.3       8.05    720      0.300
 7 EWR        7    80.7       7.37    741      0.271
 8 EWR        8    74.5       5.87    740      0.216
 9 EWR        9    67.3       9.32    719      0.348
10 EWR       10    59.8       9.79    736      0.361
# … with 26 more rows
…
Comme avec group_by(), il est bien sûr possible d’utiliser count() avec plusieurs variables :

weather %>% 
  count(origin, month)

# A tibble: 36 × 3
   origin month     n
   <chr>  <int> <int>
 1 EWR        1   742
 2 EWR        2   669
 3 EWR        3   743
 4 EWR        4   720
 5 EWR        5   744
 6 EWR        6   720
 7 EWR        7   741
 8 EWR        8   740
 9 EWR        9   719
10 EWR       10   736
# … with 26 more rows
…
Faites un tableau indiquant les vitesses de vents minimales, maximales et moyennes, enregistrées chaque mois dans chaque aéroport de New York. Votre tableau devrait ressembler à ceci :

`summarise()` has grouped output by 'origin'. You can override using the
`.groups` argument.

# A tibble: 36 × 5
# Groups:   origin [3]
   origin month max_wind min_wind moy_wind
   <chr>  <int>    <dbl>    <dbl>    <dbl>
 1 EWR        1     42.6        0     9.87
 2 EWR        2   1048.         0    12.2 
 3 EWR        3     29.9        0    11.6 
 4 EWR        4     25.3        0     9.63
 5 EWR        5     33.4        0     8.49
 6 EWR        6     34.5        0     9.55
 7 EWR        7     20.7        0     9.15
 8 EWR        8     21.9        0     7.62
 9 EWR        9     23.0        0     8.03
10 EWR       10     26.5        0     8.32
# … with 26 more rows

Sachant que les vitesses du vent sont exprimées en miles par heure, certaines valeurs sont-elles surprenantes ? À l’aide de la fonction filter(), éliminez la ou les valeurs aberrantes. Vous devriez obtenir ce tableau :

`summarise()` has grouped output by 'origin'. You can override using the
`.groups` argument.

# A tibble: 36 × 5
# Groups:   origin [3]
   origin month max_wind min_wind moy_wind
   <chr>  <int>    <dbl>    <dbl>    <dbl>
 1 EWR        1     42.6        0     9.87
 2 EWR        2     31.1        0    10.7 
 3 EWR        3     29.9        0    11.6 
 4 EWR        4     25.3        0     9.63
 5 EWR        5     33.4        0     8.49
 6 EWR        6     34.5        0     9.55
 7 EWR        7     20.7        0     9.15
 8 EWR        8     21.9        0     7.62
 9 EWR        9     23.0        0     8.03
10 EWR       10     26.5        0     8.32
# … with 26 more rows
…
Schéma de la fonction select() tiré de la ‘cheatsheet’ de dplyr et tidyr

Il n’est pas rare de travailler avec des tableaux contenant des centaines, voir des milliers de colonnes. Dans de tels cas, il peut être utile de réduire le jeu de données aux variables qui vous intéressent. Le rôle de la fonction select() est de retenir uniquement les colonnes dont on a spécifié le nom, afin de recentrer l’analyse sur les variables utiles.

select() n’est pas particulièrement utile pour le jeu de données flights puisqu’il ne contient que 19 variables. Toutefois, on peut malgré tout comprendre le fonctionnement général. Par exemle, pour sélectionner uniquement les colonnes year, month et day, on tape :

# Sélection de variables par leur nom
flights %>% 
  select(year, month, day)

# A tibble: 336,776 × 3
    year month   day
   <int> <int> <int>
 1  2013     1     1
 2  2013     1     1
 3  2013     1     1
 4  2013     1     1
 5  2013     1     1
 6  2013     1     1
 7  2013     1     1
 8  2013     1     1
 9  2013     1     1
10  2013     1     1
# … with 336,766 more rows

Puisque ces 3 variables sont placées les unes à côté des autres dans le tableau flights, on peut utiliser la notation : pour les sélectionner :

# Sélection de toutes les variables entre `year` et `day` (inclues)
flights %>% 
  select(year:day)

# A tibble: 336,776 × 3
    year month   day
   <int> <int> <int>
 1  2013     1     1
 2  2013     1     1
 3  2013     1     1
 4  2013     1     1
 5  2013     1     1
 6  2013     1     1
 7  2013     1     1
 8  2013     1     1
 9  2013     1     1
10  2013     1     1
# … with 336,766 more rows

À l’inverse, si on veut supprimer certaines colonnes, on peut utiliser la notation - :

# Sélection de toutes les variables de `flights` à l'exception
# de celles comprises entre `year` et `day` (inclues)
flights %>% 
  select(-(year:day))

# A tibble: 336,776 × 16
   dep_t…¹ sched…² dep_d…³ arr_t…⁴ sched…⁵ arr_d…⁶ carrier flight tailnum origin
     <int>   <int>   <dbl>   <int>   <int>   <dbl> <chr>    <int> <chr>   <chr> 
 1     517     515       2     830     819      11 UA        1545 N14228  EWR   
 2     533     529       4     850     830      20 UA        1714 N24211  LGA   
 3     542     540       2     923     850      33 AA        1141 N619AA  JFK   
 4     544     545      -1    1004    1022     -18 B6         725 N804JB  JFK   
 5     554     600      -6     812     837     -25 DL         461 N668DN  LGA   
 6     554     558      -4     740     728      12 UA        1696 N39463  EWR   
 7     555     600      -5     913     854      19 B6         507 N516JB  EWR   
 8     557     600      -3     709     723     -14 EV        5708 N829AS  LGA   
 9     557     600      -3     838     846      -8 B6          79 N593JB  JFK   
10     558     600      -2     753     745       8 AA         301 N3ALAA  LGA   
# … with 336,766 more rows, 6 more variables: dest <chr>, air_time <dbl>,
#   distance <dbl>, hour <dbl>, minute <dbl>, time_hour <dttm>, and abbreviated
#   variable names ¹​dep_time, ²​sched_dep_time, ³​dep_delay, ⁴​arr_time,
#   ⁵​sched_arr_time, ⁶​arr_delay
…
starts_with("abc") : renvoie toutes les variables dont les noms commencent par “abc”

ends_with("xyz") : renvoie toutes les variables dont les noms se terminent par “xyz”

contains("ijk") : renvoie toutes les variables dont les noms contiennent “ijk”

Il en existe beaucoup d’autres. Vous pouvez consulter l’aide de ?select() pour en savoir plus.

Ainsi, il est par exemple possible d’extraire toutes les variables contenant le mot “time” ainsi :

flights %>% 
  select(contains("time"))

# A tibble: 336,776 × 6
   dep_time sched_dep_time arr_time sched_arr_time air_time time_hour          
      <int>          <int>    <int>          <int>    <dbl> <dttm>             
 1      517            515      830            819      227 2013-01-01 05:00:00
 2      533            529      850            830      227 2013-01-01 05:00:00
 3      542            540      923            850      160 2013-01-01 05:00:00
 4      544            545     1004           1022      183 2013-01-01 05:00:00
 5      554            600      812            837      116 2013-01-01 06:00:00
 6      554            558      740            728      150 2013-01-01 05:00:00
 7      555            600      913            854      158 2013-01-01 06:00:00
 8      557            600      709            723       53 2013-01-01 06:00:00
 9      557            600      838            846      140 2013-01-01 06:00:00
10      558            600      753            745      138 2013-01-01 06:00:00
# … with 336,766 more rows

Évidemment, le tableau flights n’est pas modifié par cette opération : il contient toujours les 19 variables de départ. Pour travailler avec ces tableaux de données contenant moins de variables, il faut les stocker dans un nouvel objet en leur donnant un nom :

flights_time <- flights %>% 
  select(contains("time"))

Enfin, on peut utiliser select() pour renommer des variables. Mais ce n’est que rarement utile car select() élimine toutes les variables qui n’ont pas été explicitement nommées :

flights %>% 
  select(year:day,
         heure_depart = dep_time,
         retard_depart = dep_delay)

# A tibble: 336,776 × 5
    year month   day heure_depart retard_depart
   <int> <int> <int>        <int>         <dbl>
 1  2013     1     1          517             2
 2  2013     1     1          533             4
 3  2013     1     1          542             2
 4  2013     1     1          544            -1
 5  2013     1     1          554            -6
 6  2013     1     1          554            -4
 7  2013     1     1          555            -5
 8  2013     1     1          557            -3
 9  2013     1     1          557            -3
10  2013     1     1          558            -2
# … with 336,766 more rows
…
