Correction des exercices
…
# Installation et mise en mémoire des packages nécessaires
library(tidyverse)

# install.packages("devtools")
# library(devtools)

# install_github("rstudio/EDAWR")
library(EDAWR)

Affichage des tableaux :

rates

## # A tibble: 3,484 x 5
##    country      year cases population  rate
##    <chr>       <int> <dbl>      <int> <dbl>
##  1 Afghanistan  1997   128   19021226  0.07
##  2 Afghanistan  1998  1778   19496836  0.91
##  3 Afghanistan  1999   745   19987071  0.37
##  4 Afghanistan  2000  2666   20595360  1.29
##  5 Afghanistan  2001  4639   21347782  2.17
##  6 Afghanistan  2002  6509   22202806  2.93
##  7 Afghanistan  2003  6528   23116142  2.82
##  8 Afghanistan  2004  8245   24018682  3.43
##  9 Afghanistan  2005  9949   24860855  4   
## 10 Afghanistan  2006 12469   25631282  4.86
## # … with 3,474 more rows
…
storms

##     storm wind pressure       date
## 1 Alberto  110     1007 2000-08-03
## 2    Alex   45     1009 1998-07-27
## 3 Allison   65     1005 1995-06-03
## 4     Ana   40     1013 1997-06-30
## 5  Arlene   50     1010 1999-06-11
## 6  Arthur   45     1010 1996-06-17

storms est un tableau rangé avec une variable par colonne (nom de la tempête, vitesse du vent en mph, pression en millibars et date à laquelle la plus forte vitesse de vent a été enregistrée) et une ligne par observation.

population

## # A tibble: 100 x 20
##    country `1995` `1996` `1997` `1998` `1999` `2000` `2001` `2002` `2003` `2004`
##  * <chr>    <int>  <int>  <int>  <int>  <int>  <int>  <int>  <int>  <int>  <int>
##  1 Afghan… 1.76e7 1.84e7 1.90e7 1.95e7 2.00e7 2.06e7 2.13e7 2.22e7 2.31e7 2.40e7
##  2 Algeria 2.93e7 2.98e7 3.03e7 3.08e7 3.13e7 3.17e7 3.22e7 3.26e7 3.30e7 3.35e7
##  3 Angola  1.21e7 1.25e7 1.28e7 1.31e7 1.35e7 1.39e7 1.44e7 1.49e7 1.54e7 1.60e7
##  4 Argent… 3.48e7 3.53e7 3.57e7 3.61e7 3.65e7 3.69e7 3.73e7 3.76e7 3.80e7 3.83e7
##  5 Azerba… 7.77e6 7.85e6 7.92e6 7.98e6 8.05e6 8.12e6 8.20e6 8.28e6 8.37e6 8.47e6
##  6 Bangla… 1.20e8 1.22e8 1.25e8 1.27e8 1.30e8 1.32e8 1.35e8 1.37e8 1.39e8 1.41e8
##  7 Belarus 1.02e7 1.02e7 1.01e7 1.01e7 1.00e7 9.98e6 9.92e6 9.85e6 9.78e6 9.72e6
##  8 Benin   5.99e6 6.18e6 6.36e6 6.55e6 6.74e6 6.95e6 7.17e6 7.41e6 7.67e6 7.92e6
##  9 Bolivi… 7.64e6 7.81e6 7.98e6 8.15e6 8.32e6 8.50e6 8.67e6 8.84e6 9.02e6 9.19e6
## 10 Botswa… 1.58e6 1.62e6 1.66e6 1.69e6 1.72e6 1.76e6 1.78e6 1.81e6 1.83e6 1.85e6
## # … with 90 more rows, and 9 more variables: `2005` <int>, `2006` <int>,
## #   `2007` <int>, `2008` <int>, `2009` <int>, `2010` <int>, `2011` <int>,
## #   `2012` <int>, `2013` <int>

population n’est pas un tableau rangé. Les variables devraient être pays, année et population

pivot_longer(population, col = `1995`:`2013`, names_to = "year", values_to = "pop")

## # A tibble: 1,900 x 3
##    country     year       pop
##    <chr>       <chr>    <int>
##  1 Afghanistan 1995  17586073
##  2 Afghanistan 1996  18415307
##  3 Afghanistan 1997  19021226
##  4 Afghanistan 1998  19496836
##  5 Afghanistan 1999  19987071
##  6 Afghanistan 2000  20595360
##  7 Afghanistan 2001  21347782
##  8 Afghanistan 2002  22202806
##  9 Afghanistan 2003  23116142
## 10 Afghanistan 2004  24018682
## # … with 1,890 more rows

Exercice 5.3.4

1. L’objet dauphin est-il “tidy” (autrement dit, s’agit-il de “données rangées”) ? Justifiez.

# Importation du jeu de données `dauphin` :
library(readxl)
dauphin <- read_excel("dauphin.xls", na = "*", skip = 9)
names(dauphin) <- c("ID", "Sexe", "Statut", "Taille", "Age", "Cd", "Cu", "Hg", "Organe")
dauphin

## # A tibble: 93 x 9
##    ID        Sexe  Statut Taille   Age     Cd    Cu    Hg Organe
##    <chr>     <chr> <chr>   <dbl> <dbl>  <dbl> <dbl> <dbl> <chr> 
##  1 Numéro 1  f     imm       315     3  29.6   3.24 NA    rein  
##  2 Numéro 2  f     imm       357     4  55.1   4.42 NA    rein  
##  3 Numéro 3  f     pnl       439    34 129.    5.01  9.02 rein  
##  4 Numéro 4  f     imm       316     4  71.2   4.33 NA    rein  
##  5 Numéro 5  f     l         435    26 192     5.15 NA    rein  
##  6 Numéro 6  f     pnl       388     6  NA     4.12  4.53 rein  
##  7 Numéro 7  f     mat       410    NA  76     5.1  33.9  foie  
##  8 Numéro 8  m     imm       355    NA  74.4   4.72 13.3  foie  
##  9 Numéro 9  m     imm       222    NA   0.09  9.5   2.89 foie  
## 10 Numéro 10 m     imm       412     9  85.6   5.42 NA    rein  
## # … with 83 more rows
…
## Parsed with column specification:
## cols(
##   .default = col_double(),
##   country = col_character(),
##   iso2 = col_character(),
##   iso3 = col_character()
## )

## See spec(...) for full column specifications.

whoTB

## # A tibble: 7,240 x 60
##    country iso2  iso3   year new_sp_m014 new_sp_m1524 new_sp_m2534 new_sp_m3544
##    <chr>   <chr> <chr> <dbl>       <dbl>        <dbl>        <dbl>        <dbl>
##  1 Afghan… AF    AFG    1980          NA           NA           NA           NA
##  2 Afghan… AF    AFG    1981          NA           NA           NA           NA
##  3 Afghan… AF    AFG    1982          NA           NA           NA           NA
##  4 Afghan… AF    AFG    1983          NA           NA           NA           NA
##  5 Afghan… AF    AFG    1984          NA           NA           NA           NA
##  6 Afghan… AF    AFG    1985          NA           NA           NA           NA
##  7 Afghan… AF    AFG    1986          NA           NA           NA           NA
##  8 Afghan… AF    AFG    1987          NA           NA           NA           NA
##  9 Afghan… AF    AFG    1988          NA           NA           NA           NA
## 10 Afghan… AF    AFG    1989          NA           NA           NA           NA
## # … with 7,230 more rows, and 52 more variables: new_sp_m4554 <dbl>,
## #   new_sp_m5564 <dbl>, new_sp_m65 <dbl>, new_sp_f014 <dbl>,
## #   new_sp_f1524 <dbl>, new_sp_f2534 <dbl>, new_sp_f3544 <dbl>,
## #   new_sp_f4554 <dbl>, new_sp_f5564 <dbl>, new_sp_f65 <dbl>,
## #   new_sn_m014 <dbl>, new_sn_m1524 <dbl>, new_sn_m2534 <dbl>,
## #   new_sn_m3544 <dbl>, new_sn_m4554 <dbl>, new_sn_m5564 <dbl>,
## #   new_sn_m65 <dbl>, new_sn_f014 <dbl>, new_sn_f1524 <dbl>,
## #   new_sn_f2534 <dbl>, new_sn_f3544 <dbl>, new_sn_f4554 <dbl>,
## #   new_sn_f5564 <dbl>, new_sn_f65 <dbl>, new_ep_m014 <dbl>,
…
Ce jeu de données n’est pas rangé car outre les 4 premières colonnes, toutes les autres contiennent de multiples informations : nouveaux cas ou anciens (ici, ils sont tous nouveaux), type de cas (sp, sn, ep ou rel), sexe des patients (m ou f) et enfin tranches d’âges. Nous devrions donc avoir ces 4 variables supplémentaires, avec pour chaque combinaison possible, le nombre de cas de tuberculose rapportée dans les colonnes.

4. Si ce jeu de données n’est pas rangé, rangez-le en utilisant les fonctions du packages tidyr que nous avons découvertes dans ce chapitre : pivot_longer(), pivot_wider(), separate() et unite() (vous n’aurez pas nécessairement besoin d’utiliser ces 4 fonctions, et à l’inverse, certaines devront peut-être être utilisées plusieurs fois).

On commence donc par rassembler toutes les colonnes en une seule, nommée composite et tous les chiffres dans une colonne cases :

whoTB %>% 
  pivot_longer(cols = `new_sp_m014`:`new_rel_f65`, names_to = "composite", values_to = "cases")

## # A tibble: 405,440 x 6
##    country     iso2  iso3   year composite    cases
##    <chr>       <chr> <chr> <dbl> <chr>        <dbl>
##  1 Afghanistan AF    AFG    1980 new_sp_m014     NA
##  2 Afghanistan AF    AFG    1980 new_sp_m1524    NA
##  3 Afghanistan AF    AFG    1980 new_sp_m2534    NA
##  4 Afghanistan AF    AFG    1980 new_sp_m3544    NA
##  5 Afghanistan AF    AFG    1980 new_sp_m4554    NA
##  6 Afghanistan AF    AFG    1980 new_sp_m5564    NA
##  7 Afghanistan AF    AFG    1980 new_sp_m65      NA
##  8 Afghanistan AF    AFG    1980 new_sp_f014     NA
##  9 Afghanistan AF    AFG    1980 new_sp_f1524    NA
## 10 Afghanistan AF    AFG    1980 new_sp_f2534    NA
## # … with 405,430 more rows

Puisqu’ils y a beaucoup de données manquantes, on les supprime. Cela nous permet de passer de plus de 400000 lignes à environ 76000

whoTB %>% 
  pivot_longer(cols = `new_sp_m014`:`new_rel_f65`, names_to = "composite", 
               values_to = "cases", values_drop_na = TRUE)

## # A tibble: 76,046 x 6
##    country     iso2  iso3   year composite    cases
##    <chr>       <chr> <chr> <dbl> <chr>        <dbl>
##  1 Afghanistan AF    AFG    1997 new_sp_m014      0
##  2 Afghanistan AF    AFG    1997 new_sp_m1524    10
##  3 Afghanistan AF    AFG    1997 new_sp_m2534     6
##  4 Afghanistan AF    AFG    1997 new_sp_m3544     3
##  5 Afghanistan AF    AFG    1997 new_sp_m4554     5
##  6 Afghanistan AF    AFG    1997 new_sp_m5564     2
##  7 Afghanistan AF    AFG    1997 new_sp_m65       0
##  8 Afghanistan AF    AFG    1997 new_sp_f014      5
##  9 Afghanistan AF    AFG    1997 new_sp_f1524    38
## 10 Afghanistan AF    AFG    1997 new_sp_f2534    36
## # … with 76,036 more rows

Il nous faut ensuite séparer la colonne composite en plusieurs colonnes. On va se servir des _ pour isoler new, le type de cas, et la combinaison SexeAge :

whoTB %>% 
  pivot_longer(cols = `new_sp_m014`:`new_rel_f65`, names_to = "composite", 
               values_to = "cases", values_drop_na = TRUE) %>% 
  separate(col = composite, into = c("new", "type", "SexeAge"))

## # A tibble: 76,046 x 8
##    country     iso2  iso3   year new   type  SexeAge cases
##    <chr>       <chr> <chr> <dbl> <chr> <chr> <chr>   <dbl>
##  1 Afghanistan AF    AFG    1997 new   sp    m014        0
##  2 Afghanistan AF    AFG    1997 new   sp    m1524      10
##  3 Afghanistan AF    AFG    1997 new   sp    m2534       6
##  4 Afghanistan AF    AFG    1997 new   sp    m3544       3
##  5 Afghanistan AF    AFG    1997 new   sp    m4554       5
##  6 Afghanistan AF    AFG    1997 new   sp    m5564       2
##  7 Afghanistan AF    AFG    1997 new   sp    m65         0
##  8 Afghanistan AF    AFG    1997 new   sp    f014        5
##  9 Afghanistan AF    AFG    1997 new   sp    f1524      38
## 10 Afghanistan AF    AFG    1997 new   sp    f2534      36
## # … with 76,036 more rows

Nous pouvons enfin séparer la colonne SexeAge en 2 en plaçant le premier caractère dans une colonne sexe et le reste dans une colonne age_class :

whoTB %>% 
  pivot_longer(cols = `new_sp_m014`:`new_rel_f65`, names_to = "composite", 
               values_to = "cases", values_drop_na = TRUE) %>% 
  separate(col = composite, into = c("new", "type", "SexeAge")) %>% 
  separate(col = SexeAge, into = c("sexe", "age_class"), sep = 1)

## # A tibble: 76,046 x 9
##    country     iso2  iso3   year new   type  sexe  age_class cases
##    <chr>       <chr> <chr> <dbl> <chr> <chr> <chr> <chr>     <dbl>
##  1 Afghanistan AF    AFG    1997 new   sp    m     014           0
##  2 Afghanistan AF    AFG    1997 new   sp    m     1524         10
##  3 Afghanistan AF    AFG    1997 new   sp    m     2534          6
##  4 Afghanistan AF    AFG    1997 new   sp    m     3544          3
##  5 Afghanistan AF    AFG    1997 new   sp    m     4554          5
##  6 Afghanistan AF    AFG    1997 new   sp    m     5564          2
##  7 Afghanistan AF    AFG    1997 new   sp    m     65            0
##  8 Afghanistan AF    AFG    1997 new   sp    f     014           5
##  9 Afghanistan AF    AFG    1997 new   sp    f     1524         38
## 10 Afghanistan AF    AFG    1997 new   sp    f     2534         36
## # … with 76,036 more rows

Pour faire bonne mesure, on peut supprimer les colonnes iso2 et iso3 car elles sont redondantes avec country, ainsi que new qui ne contient aucune information. On stocke enfin le résultat dans un tableau nommé tidyTB :

tidyTB <- whoTB %>% 
  pivot_longer(cols = `new_sp_m014`:`new_rel_f65`, names_to = "composite", 
               values_to = "cases", values_drop_na = TRUE) %>% 
  separate(col = composite, into = c("new", "type", "SexeAge")) %>% 
  separate(col = SexeAge, into = c("sexe", "age_class"), sep = 1) %>% 
  select(-iso2, -iso3, -new)

tidyTB

## # A tibble: 76,046 x 6
##    country      year type  sexe  age_class cases
##    <chr>       <dbl> <chr> <chr> <chr>     <dbl>
##  1 Afghanistan  1997 sp    m     014           0
##  2 Afghanistan  1997 sp    m     1524         10
##  3 Afghanistan  1997 sp    m     2534          6
##  4 Afghanistan  1997 sp    m     3544          3
##  5 Afghanistan  1997 sp    m     4554          5
##  6 Afghanistan  1997 sp    m     5564          2
##  7 Afghanistan  1997 sp    m     65            0
##  8 Afghanistan  1997 sp    f     014           5
##  9 Afghanistan  1997 sp    f     1524         38
## 10 Afghanistan  1997 sp    f     2534         36
## # … with 76,036 more rows
…
Exercice 6.4.2

Dans la section 3.3.1, nous avons utilisé la fonction View et l’application manuelle de filtres pour déterminer combien de vols avaient quitté l’aéroport JFK le 12 février 2013. En utilisant la fonction filter(), créez un objet nommé JFK_12fev qui contiendra les données de ces vols. Vérifiez que cet objet contient bien 282 lignes.

JFK_12fev <- flights %>% 
  filter(origin == "JFK",
         month == 2,
         day == 12)

JFK_12fev

## # A tibble: 282 x 19
##     year month   day dep_time sched_dep_time dep_delay arr_time sched_arr_time
##    <int> <int> <int>    <int>          <int>     <dbl>    <int>          <int>
##  1  2013     2    12       17           2245        92      122           2356
##  2  2013     2    12      535            540        -5      950           1016
##  3  2013     2    12      539            540        -1      828            850
##  4  2013     2    12      555            600        -5      903            911
##  5  2013     2    12      555            600        -5      858            925
##  6  2013     2    12      556            600        -4      854            905
##  7  2013     2    12      601            601         0      911            918
##  8  2013     2    12      604            600         4      731            715
##  9  2013     2    12      608            610        -2      905            901
## 10  2013     2    12      610            615        -5      859            855
## # … with 272 more rows, and 11 more variables: arr_delay <dbl>, carrier <chr>,
## #   flight <int>, tailnum <chr>, origin <chr>, dest <chr>, air_time <dbl>,
## #   distance <dbl>, hour <dbl>, minute <dbl>, time_hour <dttm>
…
2. Faites un tableau indiquant les vitesses de vents minimales, maximales et moyennes, enregistrées chaque mois dans chaque aéroport de New York.

weather %>% 
  group_by(origin, month) %>% 
  summarize(max_wind = max(wind_speed, na.rm = TRUE),
            min_wind = min(wind_speed, na.rm = TRUE),
            moy_wind = mean(wind_speed, na.rm = TRUE))

## `summarise()` regrouping output by 'origin' (override with `.groups` argument)

## # A tibble: 36 x 5
## # Groups:   origin [3]
##    origin month max_wind min_wind moy_wind
##    <chr>  <int>    <dbl>    <dbl>    <dbl>
##  1 EWR        1     42.6        0     9.87
##  2 EWR        2   1048.         0    12.2 
##  3 EWR        3     29.9        0    11.6 
##  4 EWR        4     25.3        0     9.63
##  5 EWR        5     33.4        0     8.49
##  6 EWR        6     34.5        0     9.55
##  7 EWR        7     20.7        0     9.15
##  8 EWR        8     21.9        0     7.62
##  9 EWR        9     23.0        0     8.03
## 10 EWR       10     26.5        0     8.32
## # … with 26 more rows

3. Sachant que les vitesses du vent sont exprimées en miles par heure, certaines valeurs sont-elles surprenantes ? À l’aide de la fonction filter(), éliminez la ou les valeurs aberrantes.

Une valeur de plus de 1000 mph est impossible. Il s’agit vraisemblablement d’une erreur de saisie ou d’enregistrement.

weather %>%
  filter(wind_speed <= 500) %>% 
  group_by(origin, month) %>% 
  summarise(max_wind = max(wind_speed, na.rm = TRUE),
            min_wind = min(wind_speed, na.rm = TRUE),
            moy_wind = mean(wind_speed, na.rm = TRUE))

## `summarise()` regrouping output by 'origin' (override with `.groups` argument)

## # A tibble: 36 x 5
## # Groups:   origin [3]
##    origin month max_wind min_wind moy_wind
##    <chr>  <int>    <dbl>    <dbl>    <dbl>
##  1 EWR        1     42.6        0     9.87
##  2 EWR        2     31.1        0    10.7 
##  3 EWR        3     29.9        0    11.6 
##  4 EWR        4     25.3        0     9.63
##  5 EWR        5     33.4        0     8.49
##  6 EWR        6     34.5        0     9.55
##  7 EWR        7     20.7        0     9.15
##  8 EWR        8     21.9        0     7.62
##  9 EWR        9     23.0        0     8.03
## 10 EWR       10     26.5        0     8.32
## # … with 26 more rows
…
Ici, on convertit les données de vitesse de vent de mph en nœuds. La fonction unique() permet d’éliminer les duplicats et sort() trie les données en ordre croissant. On voit donc que seules quelques valeurs de vent sont enregistrées. L’enregistreur est incapable de détecter moins de 3 nœuds de vent, et ensuite, il enregistre des valeurs entières (3, 4, 5, et ainsi de suite jusqu’au maximum de 37 nœuds).

Exercice 6.7.2

1. Dans ggplot2 le jeu de données mpg contient des informations sur 234 modèles de voitures. Examinez ce jeu de données avec la fonction View() et consultez l’aide de ce jeu de données pour savoir à quoi correspondent les différentes variables. Quelle(s) variable(s) nous renseignent sur la consommation des véhicules ? À quoi correspond la variable disp ?

Les variables hwy et cty nous renseignent sur la consommation des véhicules sur autoroute et en ville respectivement. Les consommations sont données en miles per galon. disp est la cylindrée du moteur, son volume en litres.

2. La consommation est donnée en miles par gallon. Créez une nouvelle variable conso qui contiendra la consommation exprimée en nombre de litres pour 100 kilomètres.

mpg %>% 
  mutate(conso = 235.215 / hwy)

## # A tibble: 234 x 12
##    manufacturer model displ  year   cyl trans drv     cty   hwy fl    class
##    <chr>        <chr> <dbl> <int> <int> <chr> <chr> <int> <int> <chr> <chr>
##  1 audi         a4      1.8  1999     4 auto… f        18    29 p     comp…
##  2 audi         a4      1.8  1999     4 manu… f        21    29 p     comp…
##  3 audi         a4      2    2008     4 manu… f        20    31 p     comp…
##  4 audi         a4      2    2008     4 auto… f        21    30 p     comp…
##  5 audi         a4      2.8  1999     6 auto… f        16    26 p     comp…
##  6 audi         a4      2.8  1999     6 manu… f        18    26 p     comp…
##  7 audi         a4      3.1  2008     6 auto… f        18    27 p     comp…
##  8 audi         a4 q…   1.8  1999     4 manu… 4        18    26 p     comp…
##  9 audi         a4 q…   1.8  1999     4 auto… 4        16    25 p     comp…
## 10 audi         a4 q…   2    2008     4 manu… 4        20    28 p     comp…
## # … with 224 more rows, and 1 more variable: conso <dbl>
…
carrier : la compagnie aérienne

month : le mois de l’année 2013

n_delayed : le nombre de vols ayant plus de 30 minutes de retard

# Calcul du nombre de vols en retard (+ de 30 min à l'arrivée) pour chaque compagnie et chaque mois
delayed <- flights %>%
  filter(arr_delay > 30) %>%
  group_by(carrier, month) %>%
  summarize(n_delayed = n(), .groups = "drop")

delayed

## # A tibble: 181 x 3
##    carrier month n_delayed
##    <chr>   <int>     <int>
##  1 9E          1       255
##  2 9E          2       237
##  3 9E          3       218
##  4 9E          4       221
##  5 9E          5       317
##  6 9E          6       373
##  7 9E          7       406
##  8 9E          8       246
##  9 9E          9       125
## 10 9E         10       192
## # … with 171 more rows
…
