TP de BiométrieSemestre 3 - 4 Manipuler des tableaux avec dplyr
…
Les bons réglages pour ce fichier

Notez qu’à chaque fois que vous modifiez une valeur dans la zone Import Options, 2 choses se produisent simultanément :

La zone Data Preview est mise à jour. Cela permet de s’assurer que les changements effectués ont bien les effets escomptés.

La zone Code Preview est mise à jour. Cela permet de copier-coller dans votre script les commandes permettant d’importer correctement les données. Ici, voilà le code que nous devons ajouter à notre script :

dauphin <- read_excel("data/dauphin.xls", na = "*", skip = 9)

La commande library(readxl) est inutile puisque nous l’avons déjà saisie au début de ce chapitre. Nous disposons maintenant d’un nouvel objet nommé dauphin. Il est stocké sous la forme d’un tibble :

dauphin

# A tibble: 93 × 9
   `N°`      Sexe  `Statut reproducteur` `Taille en cm` `Age en années`
   <chr>     <chr> <chr>                          <dbl>           <dbl>
 1 Numéro 1  f     imm                              315               3
 2 Numéro 2  f     imm                              357               4
 3 Numéro 3  f     pnl                              439              34
 4 Numéro 4  f     imm                              316               4
 5 Numéro 5  f     l                                435              26
 6 Numéro 6  f     pnl                              388               6
 7 Numéro 7  f     mat                              410              NA
 8 Numéro 8  m     imm                              355              NA
 9 Numéro 9  m     imm                              222              NA
10 Numéro 10 m     imm                              412               9
# ℹ 83 more rows
# ℹ 4 more variables: `Cd (mg.kg-1)` <dbl>, `Cu (mg.kg-1)` <dbl>,
#   `Hg (mg.kg-1)` <dbl>, Organe <chr>

Notez toutefois que les noms de colonnes complexes sont toujours présents. Avec de tels noms, les variables ne seront pas faciles à manipuler et les risques d’erreurs de frappes seront nombreux. Nous avons tout intérêt à les modifier à l’aide de la fonction names() :

names(dauphin) <- c("ID", "Sexe", "Statut", "Taille",
                    "Age", "Cd", "Cu", "Hg", "Organe")
dauphin

# A tibble: 93 × 9
   ID        Sexe  Statut Taille   Age     Cd    Cu    Hg Organe
   <chr>     <chr> <chr>   <dbl> <dbl>  <dbl> <dbl> <dbl> <chr> 
 1 Numéro 1  f     imm       315     3  29.6   3.24 NA    rein  
 2 Numéro 2  f     imm       357     4  55.1   4.42 NA    rein  
 3 Numéro 3  f     pnl       439    34 129.    5.01  9.02 rein  
 4 Numéro 4  f     imm       316     4  71.2   4.33 NA    rein  
 5 Numéro 5  f     l         435    26 192     5.15 NA    rein  
 6 Numéro 6  f     pnl       388     6  NA     4.12  4.53 rein  
 7 Numéro 7  f     mat       410    NA  76     5.1  33.9  foie  
 8 Numéro 8  m     imm       355    NA  74.4   4.72 13.3  foie  
 9 Numéro 9  m     imm       222    NA   0.09  9.5   2.89 foie  
10 Numéro 10 m     imm       412     9  85.6   5.42 NA    rein  
# ℹ 83 more rows
…
Notez que :

C’est le package readr et non plus readxl qui est utilisé.

La fonction read_delim() a remplacé la fonction read_excel(). Il existe beaucoup d’autres fonctions selon le format de vos données (par exemple read_csv() et read_csv2()). Il est inutile de toutes les connaître dans la mesure où généralement, RStudio vous propose automatiquement la plus appropriée.

R indique de quelle façon les colonnes ont été “parsées”, autrement dit, quelles fonctions ont été utilisées pour reconnaître le type des données présentes dans chaque colonne.

Toutes les fonctions permettant d’importer des données n’ont pas nécessairement le même comportement. Ainsi, si l’on compare les objets importés depuis le fichier tableur (dauphin) et depuis le fichier texte brut (dauphin2), le type de certaines variables peut être différent :

dauphin

# A tibble: 93 × 9
   ID        Sexe  Statut Taille   Age     Cd    Cu    Hg Organe
   <chr>     <chr> <chr>   <dbl> <dbl>  <dbl> <dbl> <dbl> <chr> 
 1 Numéro 1  f     imm       315     3  29.6   3.24 NA    rein  
 2 Numéro 2  f     imm       357     4  55.1   4.42 NA    rein  
 3 Numéro 3  f     pnl       439    34 129.    5.01  9.02 rein  
 4 Numéro 4  f     imm       316     4  71.2   4.33 NA    rein  
 5 Numéro 5  f     l         435    26 192     5.15 NA    rein  
 6 Numéro 6  f     pnl       388     6  NA     4.12  4.53 rein  
 7 Numéro 7  f     mat       410    NA  76     5.1  33.9  foie  
 8 Numéro 8  m     imm       355    NA  74.4   4.72 13.3  foie  
 9 Numéro 9  m     imm       222    NA   0.09  9.5   2.89 foie  
10 Numéro 10 m     imm       412     9  85.6   5.42 NA    rein  
# ℹ 83 more rows

dauphin2

# A tibble: 93 × 9
      Id Sexe  Statut Taille   Age     Cd    Cu    Hg Organe
   <dbl> <chr> <chr>   <dbl> <dbl>  <dbl> <dbl> <dbl> <chr> 
 1     1 f     imm       315     3  29.6   3.24 NA    rein  
 2     2 f     imm       357     4  55.1   4.42 NA    rein  
 3     3 f     pnl       439    34 129.    5.01  9.02 rein  
 4     4 f     imm       316     4  71.2   4.33 NA    rein  
 5     5 f     l         435    26 192     5.15 NA    rein  
 6     6 f     pnl       388     6  NA     4.12  4.53 rein  
 7     7 f     mat       410    NA  76     5.1  33.9  foie  
 8     8 m     imm       355    NA  74.4   4.72 13.3  foie  
 9     9 m     imm       222    NA   0.09  9.5   2.89 foie  
10    10 m     imm       412     9  85.6   5.42 NA    rein  
# ℹ 83 more rows
…
Puisque la fonction read.table() importe les données sous la forme d’un data.frame, il est nécessaire de transformer le tableau obtenu en tibble grâce à la fonction as_tibble() afin de bénéficier de tous les avantages de ce format d’objet.

dauph <- as_tibble(dauph)
dauph

# A tibble: 93 × 9
      Id Sexe  Statut Taille   Age     Cd    Cu    Hg Organe
   <int> <chr> <chr>   <int> <int>  <dbl> <dbl> <dbl> <chr> 
 1     1 f     imm       315     3  29.6   3.24 NA    rein  
 2     2 f     imm       357     4  55.1   4.42 NA    rein  
 3     3 f     pnl       439    34 129.    5.01  9.02 rein  
 4     4 f     imm       316     4  71.2   4.33 NA    rein  
 5     5 f     l         435    26 192     5.15 NA    rein  
 6     6 f     pnl       388     6  NA     4.12  4.53 rein  
 7     7 f     mat       410    NA  76     5.1  33.9  foie  
 8     8 m     imm       355    NA  74.4   4.72 13.3  foie  
 9     9 m     imm       222    NA   0.09  9.5   2.89 foie  
10    10 m     imm       412     9  85.6   5.42 NA    rein  
# ℹ 83 more rows
…
Dans la fonction filter(), séparer plusieurs conditions par des virgules signifie que seules les lignes qui remplissent toutes les conditions seront retenues. C’est donc l’équivalent du ET logique.

Enfin, pour illustrer l’utilisation de | (le OU logique) et de %in%, imaginons que nous souhaitions extraire les informations des individus de l’espèce Adélie qui vivent soit sur l’île Biscoe, soit sur l’île Dream, et dont le bec mesure moins de 42 mm de longueur :

adel_small <- penguins |> 
  filter(species == "Adelie", 
         island == "Biscoe" | island == "Dream", 
         bill_length_mm < 42)
adel_small

# A tibble: 91 × 8
   species island bill_length_mm bill_depth_mm flipper_length_mm body_mass_g
   <fct>   <fct>           <dbl>         <dbl>             <int>       <int>
 1 Adelie  Biscoe           37.8          18.3               174        3400
 2 Adelie  Biscoe           37.7          18.7               180        3600
 3 Adelie  Biscoe           35.9          19.2               189        3800
 4 Adelie  Biscoe           38.2          18.1               185        3950
 5 Adelie  Biscoe           38.8          17.2               180        3800
 6 Adelie  Biscoe           35.3          18.9               187        3800
 7 Adelie  Biscoe           40.6          18.6               183        3550
 8 Adelie  Biscoe           40.5          17.9               187        3200
 9 Adelie  Biscoe           37.9          18.6               172        3150
10 Adelie  Biscoe           40.5          18.9               180        3950
# ℹ 81 more rows
# ℹ 2 more variables: sex <fct>, year <int>

Examinez ce tableau avec View() pour vérifier que la variable island contient bien uniquement les valeurs Biscoe et Dream correspondant aux 2 îles qui nous intéressent. Nous avons extrait ici les individus des îles Biscoe et Dream, pourtant, il nous a fallu utiliser le OU logique. Car chaque individu n’est issu que d’une unique île, or nous souhaitons récupérer toutes les lignes pour lesquelles l’île est soit Biscoe, soit Dream (l’une ou l’autre). Pour chaque ligne, les deux conditions ne peuvent pas être vraies l’une et l’autre en même temps. En revanche, on retient chaque ligne qui remplit la première condition ou la seconde.

Une autre solution pour obtenir le même tableau est de remplacer l’expression contenant | par une expression contenant %in% :

adel_small2 <- penguins |> 
  filter(species == "Adelie", 
         island %in% c("Biscoe", "Dream"), 
         bill_length_mm < 42)
adel_small2

# A tibble: 91 × 8
   species island bill_length_mm bill_depth_mm flipper_length_mm body_mass_g
   <fct>   <fct>           <dbl>         <dbl>             <int>       <int>
 1 Adelie  Biscoe           37.8          18.3               174        3400
 2 Adelie  Biscoe           37.7          18.7               180        3600
 3 Adelie  Biscoe           35.9          19.2               189        3800
 4 Adelie  Biscoe           38.2          18.1               185        3950
 5 Adelie  Biscoe           38.8          17.2               180        3800
 6 Adelie  Biscoe           35.3          18.9               187        3800
 7 Adelie  Biscoe           40.6          18.6               183        3550
 8 Adelie  Biscoe           40.5          17.9               187        3200
 9 Adelie  Biscoe           37.9          18.6               172        3150
10 Adelie  Biscoe           40.5          18.9               180        3950
# ℹ 81 more rows
# ℹ 2 more variables: sex <fct>, year <int>
…
Schéma de la fonction select() tiré de la ‘cheatsheet’ de dplyr et tidyr

Il n’est pas rare de travailler avec des tableaux contenant des centaines, voir des milliers de colonnes. Dans de tels cas, il peut être utile de réduire le jeu de données aux variables qui vous intéressent. Le rôle de la fonction select() est de retenir uniquement les colonnes dont on a spécifié le nom, afin de recentrer l’analyse sur les variables utiles.

select() n’est pas particulièrement utile pour le jeu de données penguins puisqu’il ne contient que 8 variables. Toutefois, on peut malgré tout ces données pour comprendre le fonctionnement général de select(). Ainsi, pour sélectionner uniquement les colonnes species, sex et body_mass_g, on tape :

# Sélection de variables par leur nom
penguins |>
  select(species, sex, body_mass_g)

# A tibble: 344 × 3
   species sex    body_mass_g
   <fct>   <fct>        <int>
 1 Adelie  male          3750
 2 Adelie  female        3800
 3 Adelie  female        3250
 4 Adelie  <NA>            NA
 5 Adelie  female        3450
 6 Adelie  male          3650
 7 Adelie  female        3625
 8 Adelie  male          4675
 9 Adelie  <NA>          3475
10 Adelie  <NA>          4250
# ℹ 334 more rows

Pour retenir des colonnes qui sont côte à côte dans le tableau de départ, on peut utiliser l’opérateur : pour les sélectionner :

# Sélection de toutes les variables entre `island` et `bill_depth_mm` (inclues)
penguins |>
  select(island:bill_depth_mm)

# A tibble: 344 × 3
   island    bill_length_mm bill_depth_mm
   <fct>              <dbl>         <dbl>
 1 Torgersen           39.1          18.7
 2 Torgersen           39.5          17.4
 3 Torgersen           40.3          18  
 4 Torgersen           NA            NA  
 5 Torgersen           36.7          19.3
 6 Torgersen           39.3          20.6
 7 Torgersen           38.9          17.8
 8 Torgersen           39.2          19.6
 9 Torgersen           34.1          18.1
10 Torgersen           42            20.2
# ℹ 334 more rows

À l’inverse, si on veut supprimer certaines colonnes, on peut utiliser la notation - :

# Sélection de toutes les variables de `penguins` à l'exception
# de celles comprises entre `island` et `bill_depth_mm` (inclues)
penguins |>
  select(-(island:bill_depth_mm))

# A tibble: 344 × 5
   species flipper_length_mm body_mass_g sex     year
   <fct>               <int>       <int> <fct>  <int>
 1 Adelie                181        3750 male    2007
 2 Adelie                186        3800 female  2007
 3 Adelie                195        3250 female  2007
 4 Adelie                 NA          NA <NA>    2007
 5 Adelie                193        3450 female  2007
 6 Adelie                190        3650 male    2007
 7 Adelie                181        3625 female  2007
 8 Adelie                195        4675 male    2007
 9 Adelie                193        3475 <NA>    2007
10 Adelie                190        4250 <NA>    2007
# ℹ 334 more rows
…
starts_with("abc") : renvoie toutes les variables dont les noms commencent par “abc”

ends_with("xyz") : renvoie toutes les variables dont les noms se terminent par “xyz”

contains("ijk") : renvoie toutes les variables dont les noms contiennent “ijk”

Il en existe beaucoup d’autres. Vous pouvez consulter l’aide de ?select() pour en savoir plus.

Ainsi, il est par exemple possible d’extraire toutes les variables contenant le mot “mm” ainsi :

penguins |>
  select(contains("mm"))

# A tibble: 344 × 3
   bill_length_mm bill_depth_mm flipper_length_mm
            <dbl>         <dbl>             <int>
 1           39.1          18.7               181
 2           39.5          17.4               186
 3           40.3          18                 195
 4           NA            NA                  NA
 5           36.7          19.3               193
 6           39.3          20.6               190
 7           38.9          17.8               181
 8           39.2          19.6               195
 9           34.1          18.1               193
10           42            20.2               190
# ℹ 334 more rows

Évidemment, le tableau penguins n’est pas modifié par cette opération : il contient toujours les 8 variables de départ. Pour travailler avec ces tableaux de données contenant moins de variables, il faut les stocker dans un nouvel objet en leur donnant un nom :

measures <- penguins |>
  select(contains("mm"))

Enfin, on peut utiliser select() pour renommer des variables. Mais ce n’est que rarement utile car select() élimine toutes les variables qui n’ont pas été explicitement nommées :

penguins |>
  select(species:island,
         b_length = bill_length_mm,
         flipper = flipper_length_mm)

# A tibble: 344 × 4
   species island    b_length flipper
   <fct>   <fct>        <dbl>   <int>
 1 Adelie  Torgersen     39.1     181
 2 Adelie  Torgersen     39.5     186
 3 Adelie  Torgersen     40.3     195
 4 Adelie  Torgersen     NA        NA
 5 Adelie  Torgersen     36.7     193
 6 Adelie  Torgersen     39.3     190
 7 Adelie  Torgersen     38.9     181
 8 Adelie  Torgersen     39.2     195
 9 Adelie  Torgersen     34.1     193
10 Adelie  Torgersen     42       190
# ℹ 334 more rows

Il est donc généralement préférable d’utiliser rename() pour renommer certaines variables sans en éliminer aucune :

penguins |>
  rename(b_length = bill_length_mm,
         flipper = flipper_length_mm)

# A tibble: 344 × 8
   species island    b_length bill_depth_mm flipper body_mass_g sex     year
   <fct>   <fct>        <dbl>         <dbl>   <int>       <int> <fct>  <int>
 1 Adelie  Torgersen     39.1          18.7     181        3750 male    2007
 2 Adelie  Torgersen     39.5          17.4     186        3800 female  2007
 3 Adelie  Torgersen     40.3          18       195        3250 female  2007
 4 Adelie  Torgersen     NA            NA        NA          NA <NA>    2007
 5 Adelie  Torgersen     36.7          19.3     193        3450 female  2007
 6 Adelie  Torgersen     39.3          20.6     190        3650 male    2007
 7 Adelie  Torgersen     38.9          17.8     181        3625 female  2007
 8 Adelie  Torgersen     39.2          19.6     195        4675 male    2007
 9 Adelie  Torgersen     34.1          18.1     193        3475 <NA>    2007
10 Adelie  Torgersen     42            20.2     190        4250 <NA>    2007
# ℹ 334 more rows
…
Schéma de la fonction mutate() tiré de la ‘cheatsheet’ de dplyr et tidyr

La fonction mutate() permet de créer de nouvelles variables à partir des variables existantes, ou de modifier des variables déjà présentes dans un jeu de données. Il est en effet fréquent d’avoir besoin de calculer de nouvelles variables, souvent plus informatives que les variables disponibles.

Voyons un exemple. À partir de penguins, nous allons calculer 1 nouvelles variable et en modifier une autre :

ratio : le rapport entre la longueur du bec et son épaisseur. Cela nous donnera un indice de la compacité du bec. Des valeurs faibles de ce ratio un bec très trapu, alors que des valeurs fortes indiqueront un bec très effilé

mass_kg : la masse, qui est ici exprimée en grammes sera transformée en kilogrammes par une simple division par 1000

penguins |>
  mutate(ratio = bill_length_mm / bill_depth_mm,
         mass_kg = body_mass_g / 1000)

# A tibble: 344 × 10
   species island    bill_length_mm bill_depth_mm flipper_length_mm body_mass_g
   <fct>   <fct>              <dbl>         <dbl>             <int>       <int>
 1 Adelie  Torgersen           39.1          18.7               181        3750
 2 Adelie  Torgersen           39.5          17.4               186        3800
 3 Adelie  Torgersen           40.3          18                 195        3250
 4 Adelie  Torgersen           NA            NA                  NA          NA
 5 Adelie  Torgersen           36.7          19.3               193        3450
 6 Adelie  Torgersen           39.3          20.6               190        3650
 7 Adelie  Torgersen           38.9          17.8               181        3625
 8 Adelie  Torgersen           39.2          19.6               195        4675
 9 Adelie  Torgersen           34.1          18.1               193        3475
10 Adelie  Torgersen           42            20.2               190        4250
# ℹ 334 more rows
# ℹ 4 more variables: sex <fct>, year <int>, ratio <dbl>, mass_kg <dbl>

Si on souhaite conserver uniquement les variables nouvellement créées par mutate(), on peut utiliser transmute() :

penguins |>
  transmute(ratio = bill_length_mm / bill_depth_mm,
            mass_kg = body_mass_g / 1000)

# A tibble: 344 × 2
   ratio mass_kg
   <dbl>   <dbl>
 1  2.09    3.75
 2  2.27    3.8 
 3  2.24    3.25
 4 NA      NA   
 5  1.90    3.45
 6  1.91    3.65
 7  2.19    3.62
 8  2       4.68
 9  1.88    3.48
10  2.08    4.25
# ℹ 334 more rows
…
